Var1,Var2,Var3,Var4_1,Var4_2,Var4_3,Var5,Var6,Var7
pCN,0.6875,0.0048572636092,5.72336191653833,17.2317834682687,52.6049999884696,0.11783099244805,1,11001
$\infty$-MALA,0.7074,0.2228435988565,27.1482611856314,58.4398016156334,138.932765152128,0.0121826524634049,0.103390900902206,22002
$\infty$-HMC,0.7669,0.5618474522084,302.374696908494,461.032275510751,590.358666558129,0.0538179350498038,0.456738366805587,54822
$\infty$-mMALA,0.754,0.8093054706606,1422.11449842455,1747.68200420616,2051.49603496913,0.175720361467931,1.49129153389253,2222202
$\infty$-mHMC,0.6166,1.9910263179366,2514.45462840739,3667.8808776598,4438.34607163633,0.126289371755429,1.07178399444534,5562070
split $\infty$-mMALA,0.6729,0.3196184517893,654.22141478563,1078.15322642875,1283.37380326629,0.204688249731248,1.73713422486441,572052
split $\infty$-mHMC,0.6702,0.8023116554646,3641.20344041959,5230.47874190503,5746.95808575045,0.453839030708217,3.85161001600074,1434940
