# Method,AR,s/iter,ESS (min,med,max),minESS/s,spdup,PDEsolns
pCN,0.6101,1.2928685377836227,   5.24,   6.66,  13.33, 211.35,0.00040507440697609584,1.0,22004.0
infMALA,0.6613,1.6759561364889144,  5.38,  6.62, 19.53, 22.61,0.00032084927836848967,0.7920749196762351,33005.0
infHMC,0.7191,3.8099863009929655,  5.41,  7.43, 16.44,  9.08,0.0001419182595974655,0.35035108896879863,82466.0
infmMALA,0.6762,5.969313990092277, 1075.24, 2851.22, 3867.08, 1174.99,0.01801273621866324,44.467722246708625,2233205.0
infmHMC,0.582,13.325281886601449, 2058.42, 3394.17, 4560.03, 8721.12,0.015447479166289685,38.134917684891576,5575696.0
splitinfmMALA,0.5698,3.6598506615877153, 1079.55, 1805.89, 2395.13, 2077.28,0.029497150680545006,72.8190924248781,693065.0
splitinfmHMC,0.6012,6.879557210707665, 2749.63, 3974.36, 5498.03,   80.88,0.03996818294741828,98.66874396183927,1721694.0
