# Method,AR,s/iter,ESS (min,med,max),minESS/s,spdup,PDEsolns
pCN,0.609,1.0245714573144913,   5.23,   6.63,  17.49, 215.58,0.0005106234270769933,1.0,11002.0
infMALA,0.6577,1.4703129476070405,  5.41,  6.65, 20.21, 16.06,0.00036774744929523375,0.7201930616469419,22003.0
infHMC,0.7177,3.4513268062114717,  5.39,  7.35, 21.08,  9.89,0.00015628026974624115,0.30605777459301087,54977.0
infmMALA,0.6858,5.926469926404953, 1516.21, 3068.39, 3894.55, 1421.09,0.025583618899900726,50.10271276888193,2222203.0
infmHMC,0.5711,12.533324936413765, 2128.96, 2960.53, 3924.69, 7280.15,0.016986373153123648,33.265949528325095,5517833.0
splitinfmMALA,0.5816,3.6567251430988312, 1171.86, 1985.72, 2432.11, 2125.55,0.03204670694463555,62.75996212724383,682063.0
splitinfmHMC,0.602,6.457055555605888, 2241.68, 3924.29, 5306.7 ,  122.88,0.03471682888423344,67.9891032085348,1688447.0
